Case #1: IMPOSSIBLE
Case #2: 1
Case #3: IMPOSSIBLE
Case #4: IMPOSSIBLE
Case #5: 2 4 1 5 3
Case #6: 2 1
Case #7: IMPOSSIBLE
Case #8: IMPOSSIBLE
Case #9: IMPOSSIBLE
Case #10: IMPOSSIBLE
Case #11: 20 19 18 10 17 9 5 16 8 4 15 11 7 3 14 6 2 13 1 12
Case #12: IMPOSSIBLE
Case #13: IMPOSSIBLE
Case #14: IMPOSSIBLE
Case #15: 1
Case #16: IMPOSSIBLE
Case #17: IMPOSSIBLE
Case #18: IMPOSSIBLE
Case #19: 8 12 1 4 13 7 11 16 20 9 19 18 6 10 5 17 15 3 2 14
Case #20: IMPOSSIBLE
Case #21: IMPOSSIBLE
Case #22: IMPOSSIBLE
Case #23: IMPOSSIBLE
Case #24: IMPOSSIBLE
Case #25: 2 1 4 3
