Case #1: 2.000000
Case #2: 2.000000
Case #3: 4.000000
Case #4: 0.000000
Case #5: 2.000000
Case #6: 2.000000
Case #7: 4.000000
Case #8: 4.000000
Case #9: 2.000000
Case #10: 2.000000
Case #11: 4.000000
Case #12: 4.000000
Case #13: 4.000000
Case #14: 4.000000
Case #15: 4.000000
Case #16: 4.000000
Case #17: 4.000000
Case #18: 2.000000
Case #19: 4.000000
Case #20: 4.000000
Case #21: 4.000000
Case #22: 4.000000
Case #23: 4.000000
Case #24: 4.000000
Case #25: 2.000000
Case #26: 4.000000
Case #27: 4.000000
Case #28: 6.000000
Case #29: 2.000000
Case #30: 6.000000
Case #31: 6.000000
Case #32: 4.000000
Case #33: 10.000000
Case #34: 6.000000
Case #35: 8.000000
Case #36: 0.000000
Case #37: 4.000000
Case #38: 10.000000
Case #39: 10.000000
Case #40: 2.000000
Case #41: 6.000000
Case #42: 8.000000
Case #43: 2.000000
Case #44: 0.000000
Case #45: 4.000000
Case #46: 10.000000
Case #47: 6.000000
Case #48: 2.000000
Case #49: 2.000000
Case #50: 0.000000
Case #51: 10.000000
Case #52: 6.000000
Case #53: 4.000000
Case #54: 0.000000
Case #55: 2.000000
Case #56: 2.000000
Case #57: 2.000000
Case #58: 2.000000
Case #59: 4.000000
Case #60: 4.000000
Case #61: 4.000000
Case #62: 6.000000
Case #63: 8.000000
Case #64: 8.000000
Case #65: 8.000000
Case #66: 0.000000
Case #67: 8.000000
Case #68: 0.000000
Case #69: 0.000000
Case #70: 6.000000
Case #71: 8.000000
Case #72: 0.000000
Case #73: 2.000000
Case #74: 0.000000
Case #75: 4.000000
Case #76: 4.000000
Case #77: 8.000000
Case #78: 0.000000
Case #79: 8.000000
Case #80: 6.000000
Case #81: 4.000000
Case #82: 0.000000
Case #83: 2.000000
Case #84: 4.000000
Case #85: 2.000000
Case #86: 10.000000
Case #87: 8.000000
Case #88: 6.000000
Case #89: 10.000000
Case #90: 4.000000
Case #91: 8.000000
Case #92: 4.000000
Case #93: 4.000000
Case #94: 10.000000
Case #95: 2.000000
Case #96: 4.000000
Case #97: 8.000000
Case #98: 8.000000
Case #99: 6.000000
Case #100: 4.000000
